
////////////////////////////////////////////////////////////////

Dearest Cat Hourly Subscriber ,
please take some time to take this quick survey :

How satisfied are you with cats hourly :

 1. Very Satisfied 
[2]. It's okay , but numerous messages are anxiety inducing .
 3. I hate it , worst thing ever .

Please Check One Of The Above .

( Changing Aubrey's To : 9x9 grid of kittens ,  )
( sent when their shift ends                    )

////////////////////////////////////////////////////////////////

Dear MemeBank Of AnnArbor consumer , 
how satisfied are you with your service ?

1. Very Satisfied 

2. It's okay , but some of your memes miss the mark .

3. It's okay , but the constant barrage of memes is too fast .
   Please slow your fucking role . Switch to decaffee .

4. Your memes are trash and I want my balance refunded .


Please Check One Of The Above .

////////////////////////////////////////////////////////////////

